{
  "success": true,
  "total": 200,
  "pages": 3,
  "page": 1,
  "pageSize": 17,
  "suggestions": [
    "suggestion",
    "another suggestion"
  ],
  "primeEntries": [
    {"id": 1, "content": "<somexml>I am an entry.</somexml>"},
    {"id": 2, "content": "<somexml>I am an entry too.</somexml>"}
  ],
  "entries": [
    {"id": 345, "hasChildren": true, "content": "<somexml>I am an entry.</somexml>"},
    {"id": 123, "hasChildren": true, "content": "<somexml>I am an entry too.</somexml>"},
    {"id": 567, "content": "<somexml>I am also an entry.</somexml>"},
    {"id": 678, "content": "<somexml>I, too, am an entry.</somexml>"},
    {"id": 890, "content": "<somexml>I am an entry as well.</somexml>"},
    {"id": 234, "content": "<somexml>I be entry additionally yes.</somexml>"},
    {"id": 1345, "content": "<somexml>I am an entry.</somexml>"},
    {"id": 1123, "content": "<somexml>I am an entry too.</somexml>"},
    {"id": 1567, "content": "<somexml>I am also an entry.</somexml>"},
    {"id": 1678, "content": "<somexml>I, too, am an entry.</somexml>"},
    {"id": 1890, "content": "<somexml>I am an entry as well.</somexml>"},
    {"id": 1234, "content": "<somexml>I be entry additionally yes.</somexml>"},
    {"id": 11345, "content": "<somexml>I am an entry.</somexml>"},
    {"id": 11123, "content": "<somexml>I am an entry too.</somexml>"},
    {"id": 11567, "content": "<somexml>I am also an entry.</somexml>"},
    {"id": 11678, "content": "<somexml>I, too, am an entry.</somexml>"},
    {"id": 11890, "content": "<somexml>I am an entry as well.</somexml>"},
    {"id": 11234, "content": "<somexml>I be entry additionally yes.</somexml>"}
  ]
}
